module ista

go 1.18

require (
	fyne.io/systray v1.10.0
	github.com/c-robinson/iplib v1.0.3
	github.com/chappjc/logrus-prefix v0.0.0-20180227015900-3a1d64819adb
	github.com/containers/podman/v4 v4.2.0
	github.com/envoyproxy/go-control-plane v0.10.3
	github.com/google/uuid v1.3.0
	github.com/grpc-ecosystem/go-grpc-middleware v1.3.0
	github.com/pkg/browser v0.0.0-20210911075715-681adbf594b8
	github.com/samber/lo v1.27.0
	github.com/sirupsen/logrus v1.9.0
	github.com/spf13/pflag v1.0.5
	github.com/spf13/viper v1.12.0
	google.golang.org/grpc v1.48.0
	google.golang.org/protobuf v1.28.1
)

require (
	github.com/BurntSushi/toml v1.2.0 // indirect
	github.com/Microsoft/go-winio v0.5.2 // indirect
	github.com/Microsoft/hcsshim v0.9.3 // indirect
	github.com/VividCortex/ewma v1.2.0 // indirect
	github.com/acarl005/stripansi v0.0.0-20180116102854-5a71ef0e047d // indirect
	github.com/beorn7/perks v1.0.1 // indirect
	github.com/blang/semver v3.5.1+incompatible // indirect
	github.com/blang/semver/v4 v4.0.0 // indirect
	github.com/census-instrumentation/opencensus-proto v0.3.0 // indirect
	github.com/cespare/xxhash/v2 v2.1.2 // indirect
	github.com/chzyer/readline v0.0.0-20180603132655-2972be24d48e // indirect
	github.com/cilium/ebpf v0.7.0 // indirect
	github.com/cncf/xds/go v0.0.0-20220314180256-7f1daf1720fc // indirect
	github.com/containerd/cgroups v1.0.3 // indirect
	github.com/containerd/containerd v1.6.6 // indirect
	github.com/containerd/stargz-snapshotter/estargz v0.12.0 // indirect
	github.com/containers/buildah v1.27.0 // indirect
	github.com/containers/common v0.49.1 // indirect
	github.com/containers/image/v5 v5.22.0 // indirect
	github.com/containers/libtrust v0.0.0-20200511145503-9c3a6c22cd9a // indirect
	github.com/containers/ocicrypt v1.1.5 // indirect
	github.com/containers/psgo v1.7.2 // indirect
	github.com/containers/storage v1.42.0 // indirect
	github.com/coreos/go-systemd/v22 v22.3.2 // indirect
	github.com/cyphar/filepath-securejoin v0.2.3 // indirect
	github.com/disiqueira/gotree/v3 v3.0.2 // indirect
	github.com/docker/distribution v2.8.1+incompatible // indirect
	github.com/docker/docker v20.10.17+incompatible // indirect
	github.com/docker/docker-credential-helpers v0.6.4 // indirect
	github.com/docker/go-connections v0.4.1-0.20210727194412-58542c764a11 // indirect
	github.com/docker/go-metrics v0.0.1 // indirect
	github.com/docker/go-units v0.4.0 // indirect
	github.com/envoyproxy/protoc-gen-validate v0.6.7 // indirect
	github.com/fsnotify/fsnotify v1.5.4 // indirect
	github.com/ghodss/yaml v1.0.0 // indirect
	github.com/godbus/dbus/v5 v5.1.0 // indirect
	github.com/gogo/protobuf v1.3.2 // indirect
	github.com/golang/groupcache v0.0.0-20210331224755-41bb18bfe9da // indirect
	github.com/golang/protobuf v1.5.2 // indirect
	github.com/google/go-containerregistry v0.10.0 // indirect
	github.com/google/go-intervals v0.0.2 // indirect
	github.com/gorilla/mux v1.8.0 // indirect
	github.com/gorilla/schema v1.2.0 // indirect
	github.com/hashicorp/errwrap v1.1.0 // indirect
	github.com/hashicorp/go-multierror v1.1.1 // indirect
	github.com/hashicorp/hcl v1.0.0 // indirect
	github.com/imdario/mergo v0.3.13 // indirect
	github.com/jinzhu/copier v0.3.5 // indirect
	github.com/json-iterator/go v1.1.12 // indirect
	github.com/klauspost/compress v1.15.9 // indirect
	github.com/klauspost/pgzip v1.2.5 // indirect
	github.com/letsencrypt/boulder v0.0.0-20220331220046-b23ab962616e // indirect
	github.com/magiconair/properties v1.8.6 // indirect
	github.com/manifoldco/promptui v0.9.0 // indirect
	github.com/mattn/go-colorable v0.1.12 // indirect
	github.com/mattn/go-isatty v0.0.14 // indirect
	github.com/mattn/go-runewidth v0.0.13 // indirect
	github.com/mattn/go-shellwords v1.0.12 // indirect
	github.com/matttproud/golang_protobuf_extensions v1.0.2-0.20181231171920-c182affec369 // indirect
	github.com/mgutz/ansi v0.0.0-20200706080929-d51e80ef957d // indirect
	github.com/miekg/pkcs11 v1.1.1 // indirect
	github.com/mistifyio/go-zfs v2.1.2-0.20190413222219-f784269be439+incompatible // indirect
	github.com/mitchellh/mapstructure v1.5.0 // indirect
	github.com/moby/sys/mountinfo v0.6.2 // indirect
	github.com/modern-go/concurrent v0.0.0-20180306012644-bacd9c7ef1dd // indirect
	github.com/modern-go/reflect2 v1.0.2 // indirect
	github.com/nxadm/tail v1.4.8 // indirect
	github.com/opencontainers/go-digest v1.0.0 // indirect
	github.com/opencontainers/image-spec v1.0.3-0.20220114050600-8b9d41f48198 // indirect
	github.com/opencontainers/runc v1.1.3 // indirect
	github.com/opencontainers/runtime-spec v1.0.3-0.20211214071223-8958f93039ab // indirect
	github.com/opencontainers/runtime-tools v0.9.1-0.20220714195903-17b3287fafb7 // indirect
	github.com/opencontainers/selinux v1.10.1 // indirect
	github.com/ostreedev/ostree-go v0.0.0-20210805093236-719684c64e4f // indirect
	github.com/pelletier/go-toml v1.9.5 // indirect
	github.com/pelletier/go-toml/v2 v2.0.1 // indirect
	github.com/pkg/errors v0.9.1 // indirect
	github.com/proglottis/gpgme v0.1.3 // indirect
	github.com/prometheus/client_golang v1.12.1 // indirect
	github.com/prometheus/client_model v0.2.0 // indirect
	github.com/prometheus/common v0.32.1 // indirect
	github.com/prometheus/procfs v0.7.3 // indirect
	github.com/rivo/uniseg v0.2.0 // indirect
	github.com/sigstore/sigstore v1.3.1-0.20220629021053-b95fc0d626c1 // indirect
	github.com/spf13/afero v1.8.2 // indirect
	github.com/spf13/cast v1.5.0 // indirect
	github.com/spf13/jwalterweatherman v1.1.0 // indirect
	github.com/stefanberger/go-pkcs11uri v0.0.0-20201008174630-78d3cae3a980 // indirect
	github.com/subosito/gotenv v1.3.0 // indirect
	github.com/sylabs/sif/v2 v2.7.1 // indirect
	github.com/syndtr/gocapability v0.0.0-20200815063812-42c35b437635 // indirect
	github.com/tchap/go-patricia v2.3.0+incompatible // indirect
	github.com/tevino/abool v1.2.0 // indirect
	github.com/theupdateframework/go-tuf v0.3.1 // indirect
	github.com/titanous/rocacheck v0.0.0-20171023193734-afe73141d399 // indirect
	github.com/ulikunitz/xz v0.5.10 // indirect
	github.com/vbatts/tar-split v0.11.2 // indirect
	github.com/vbauerster/mpb/v7 v7.4.2 // indirect
	github.com/x-cray/logrus-prefixed-formatter v0.5.2 // indirect
	github.com/xeipuuv/gojsonpointer v0.0.0-20190905194746-02993c407bfb // indirect
	github.com/xeipuuv/gojsonreference v0.0.0-20180127040603-bd5ef7bd5415 // indirect
	github.com/xeipuuv/gojsonschema v1.2.0 // indirect
	go.etcd.io/bbolt v1.3.6 // indirect
	go.mozilla.org/pkcs7 v0.0.0-20200128120323-432b2356ecb1 // indirect
	go.opencensus.io v0.23.0 // indirect
	golang.org/x/crypto v0.0.0-20220411220226-7b82a4e95df4 // indirect
	golang.org/x/exp v0.0.0-20220303212507-bbda1eaf7a17 // indirect
	golang.org/x/net v0.0.0-20220624214902-1bab6f366d9e // indirect
	golang.org/x/sync v0.0.0-20220601150217-0de741cfad7f // indirect
	golang.org/x/sys v0.0.0-20220715151400-c0bba94af5f8 // indirect
	golang.org/x/term v0.0.0-20220526004731-065cf7ba2467 // indirect
	golang.org/x/text v0.3.7 // indirect
	google.golang.org/genproto v0.0.0-20220624142145-8cd45d7dbd1f // indirect
	gopkg.in/ini.v1 v1.66.4 // indirect
	gopkg.in/square/go-jose.v2 v2.6.0 // indirect
	gopkg.in/tomb.v1 v1.0.0-20141024135613-dd632973f1e7 // indirect
	gopkg.in/yaml.v2 v2.4.0 // indirect
	gopkg.in/yaml.v3 v3.0.1 // indirect
)
